…
## 使い方



```r
  # SQLで選択・フィルタ
res <- dbSendQuery(con, "SELECT year, model, displ, cyl FROM mpg WHERE cyl = 4")
df <- dbFetch(res)
dbClearResult(res)
tibble::tibble(df)
```

```
## # A tibble: 81 × 4
##     year model      displ   cyl
##    <int> <chr>      <dbl> <int>
##  1  1999 a4           1.8     4
##  2  1999 a4           1.8     4
##  3  2008 a4           2       4
##  4  2008 a4           2       4
##  5  1999 a4 quattro   1.8     4
##  6  1999 a4 quattro   1.8     4
##  7  2008 a4 quattro   2       4
##  8  2008 a4 quattro   2       4
##  9  1999 malibu       2.4     4
## 10  2008 malibu       2.4     4
## # ℹ 71 more rows
```

```r
  # とりあえず全部取得してから，dplyrで選択・フィルタ
res <- dbSendQuery(con, "SELECT * FROM mpg")
df <- dbFetch(res)
dbClearResult(res)
df %>%
  tibble::as_tibble() %>%
  print() %>%
  dplyr::select(year, model, displ, cyl) %>%
  dplyr::filter(cyl == 4)
```

```
## # A tibble: 234 × 11
##    manufacturer model      displ  year   cyl trans drv     cty   hwy fl    class
##    <chr>        <chr>      <dbl> <int> <int> <chr> <chr> <int> <int> <chr> <chr>
##  1 audi         a4           1.8  1999     4 auto… f        18    29 p     comp…
##  2 audi         a4           1.8  1999     4 manu… f        21    29 p     comp…
##  3 audi         a4           2    2008     4 manu… f        20    31 p     comp…
##  4 audi         a4           2    2008     4 auto… f        21    30 p     comp…
##  5 audi         a4           2.8  1999     6 auto… f        16    26 p     comp…
##  6 audi         a4           2.8  1999     6 manu… f        18    26 p     comp…
##  7 audi         a4           3.1  2008     6 auto… f        18    27 p     comp…
##  8 audi         a4 quattro   1.8  1999     4 manu… 4        18    26 p     comp…
##  9 audi         a4 quattro   1.8  1999     4 auto… 4        16    25 p     comp…
## 10 audi         a4 quattro   2    2008     4 manu… 4        20    28 p     comp…
## # ℹ 224 more rows
```

```
## # A tibble: 81 × 4
##     year model      displ   cyl
##    <int> <chr>      <dbl> <int>
##  1  1999 a4           1.8     4
##  2  1999 a4           1.8     4
##  3  2008 a4           2       4
##  4  2008 a4           2       4
##  5  1999 a4 quattro   1.8     4
##  6  1999 a4 quattro   1.8     4
##  7  2008 a4 quattro   2       4
##  8  2008 a4 quattro   2       4
##  9  1999 malibu       2.4     4
## 10  2008 malibu       2.4     4
## # ℹ 71 more rows
```
…
