Chap. 18 qpdfでPDF操作 | Rにる作業の効率化・自動化 -パッケージ活用術-
…
install.packages("pdftools")

library(pdftools)

関数pdf_text()にPDFファイルのパスを指定すれば，テキストを抽出した結果が得られる．
1ページごとの内容が文字列のベクトルになっている．

  # https://docs.ropensci.org/pdftools/
url <- "http://arxiv.org/pdf/1403.2805.pdf"
destfile <- "1403.2805.pdf"
curl::curl_download(url, destfile)
txt <- pdftools::pdf_text(destfile)
tibble::as_tibble(txt)

## # A tibble: 29 × 1
##    value                                                                        
##    <chr>                                                                        
##  1 "                                              The jsonlite Package: A Pract…
##  2 "JSON with R. We refer to Nolan and Temple Lang (2014) for a comprehensive i…
##  3 "homogenous. And indeed, some implementations will now return a list instead…
##  4 "The alternative to class-based method dispatch is to use type-based encodin…
##  5 "2       Converting between JSON and R classes\n\nThis section lists example…
##  6 "encoding. However, the problem with encoding missing values as strings is t…
##  7 "limitations as text based formats such as CSV.\n\n\n2.1.3      Special case…
##  8 "is assuming an array, the application will likely break. Any consumer or cl…
##  9 "We expect this representation will be the most intuitive to interpret, also…
## 10 "colnames(x) <- c(\"Treatment A\", \"Treatment B\")\nprint(x)\n\n        Tre…
## # ℹ 19 more rows
…
