…
C:/Users/your_user_name/AppData/Local/Microsoft/WindowsApps/python.exe

参考：https://hrkworks.com/it/programming/python/py-4421/

## Pythonを使ってみる


```r
system("pip list", intern = TRUE) %>%
  tibble::as_tibble()
```

```
## # A tibble: 31 x 1
##    value                   
##    <chr>                   
##  1 Package         Version 
##  2 --------------- --------
##  3 art             5.9     
##  4 contourpy       1.0.7   
##  5 cycler          0.11.0  
##  6 fire            0.5.0   
##  7 fonttools       4.39.3  
##  8 kiwisolver      1.4.4   
##  9 lxml            4.9.2   
## 10 matplotlib      3.7.1   
## # i 21 more rows
```
…
