…
## 
## [[2]]
## # A tibble: 1 x 1
##   X1                
##   <chr>             
## 1 "ホーム | \r\n >>"
## 
## [[3]]
## # A tibble: 1 x 6
##   X1    X2    X3    X4    X5    X6   
##   <lgl> <lgl> <lgl> <lgl> <lgl> <lgl>
## 1 NA    NA    NA    NA    NA    NA   
## 
## [[4]]
## # A tibble: 49 x 5
##    `都道府県名▲▼` 和名  学名  RDBカテゴリ名 統一カテゴリ
##    <chr>          <chr> <chr> <chr>         <chr>       
##  1 環境省RDB      -     -     -             ""          
##  2 北海道         -     -     -             ""          
##  3 青森県         -     -     -             ""          
##  4 岩手県         -     -     -             ""          
##  5 宮城県         -     -     -             ""          
##  6 秋田県         -     -     -             ""          
##  7 山形県         -     -     -             ""          
##  8 福島県         -     -     -             ""          
##  9 茨城県         -     -     -             ""          
## 10 栃木県         -     -     -             ""          
## # i 39 more rows
## 
## [[5]]
…
