Chap. 6 tidyverseを使う | Rにる作業の効率化・自動化 -パッケージ活用術-
…
tibble::as_tibble(df)

## # A tibble: 21 × 3
##         a       b       c
##     <dbl>   <dbl>   <dbl>
##  1 -1.09  -0.610  -0.524 
##  2 -0.639 -0.744   1.61  
##  3  0.215  0.190  -0.0119
##  4 -1.39  -0.736   0.688 
##  5  0.633 -0.481  -0.137 
##  6  0.274 -0.0368 -0.0299
##  7  0.528 -0.267   1.11  
##  8  2.01  -1.21    0.482 
##  9  0.238  0.497  -0.956 
## 10  0.142  0.485  -0.271 
## # ℹ 11 more rows
…
すでにデータフレームがある場合は，as_tibble()でtibbleへの変換ができる．

head(mtcars)

##                    mpg cyl disp  hp drat    wt  qsec vs am gear carb
## Mazda RX4         21.0   6  160 110 3.90 2.620 16.46  0  1    4    4
## Mazda RX4 Wag     21.0   6  160 110 3.90 2.875 17.02  0  1    4    4
## Datsun 710        22.8   4  108  93 3.85 2.320 18.61  1  1    4    1
## Hornet 4 Drive    21.4   6  258 110 3.08 3.215 19.44  1  0    3    1
## Hornet Sportabout 18.7   8  360 175 3.15 3.440 17.02  0  0    3    2
## Valiant           18.1   6  225 105 2.76 3.460 20.22  1  0    3    1

tibble::as_tibble(mtcars)

## # A tibble: 32 × 11
##      mpg   cyl  disp    hp  drat    wt  qsec    vs    am  gear  carb
##    <dbl> <dbl> <dbl> <dbl> <dbl> <dbl> <dbl> <dbl> <dbl> <dbl> <dbl>
##  1  21       6  160    110  3.9   2.62  16.5     0     1     4     4
##  2  21       6  160    110  3.9   2.88  17.0     0     1     4     4
##  3  22.8     4  108     93  3.85  2.32  18.6     1     1     4     1
##  4  21.4     6  258    110  3.08  3.22  19.4     1     0     3     1
##  5  18.7     8  360    175  3.15  3.44  17.0     0     0     3     2
##  6  18.1     6  225    105  2.76  3.46  20.2     1     0     3     1
##  7  14.3     8  360    245  3.21  3.57  15.8     0     0     3     4
##  8  24.4     4  147.    62  3.69  3.19  20       1     0     4     2
##  9  22.8     4  141.    95  3.92  3.15  22.9     1     0     4     2
## 10  19.2     6  168.   123  3.92  3.44  18.3     1     0     4     4
## # ℹ 22 more rows
…
1つ目の引数にはデータフレームを指定する．
ここではrelig_incomeだが，パイプが用いられているので省略されている
colsには整形する列を指定する．
ここでは，!religionでreligion以外を指定している．
names_toには列名をもとに作る新たな変数(列)名を，
values_toにはデータの値をもとに作る新たな変数(列)名を文字列で指定する．

relig_income %>% 
  tidyr::pivot_longer(
    cols = !religion, 
    names_to = "income", 
    values_to = "count"
  )

## # A tibble: 180 × 3
##    religion income             count
##    <chr>    <chr>              <dbl>
##  1 Agnostic <$10k                 27
##  2 Agnostic $10-20k               34
##  3 Agnostic $20-30k               60
##  4 Agnostic $30-40k               81
##  5 Agnostic $40-50k               76
##  6 Agnostic $50-75k              137
##  7 Agnostic $75-100k             122
##  8 Agnostic $100-150k            109
##  9 Agnostic >150k                 84
## 10 Agnostic Don't know/refused    96
## # ℹ 170 more rows
…
readr::write_csv(mpg, file = "file_path")
readr::write_tsv(mpg, file = "file_path")

読み込むときは，read_csv(カンマ区切り)やread_tsv(タブ区切り)を使う．
各列のデータ形式を指定したい場合は，col_typesを使う．

readr::read_csv("file_path")
readr::read_tsv("file_path")

ここでは，第?章で保存したデータを読み込む．

pkgs <- readr::read_tsv("pkgs.txt", show_col_types = FALSE)
pkgs

## # A tibble: 19,530 × 2
##    pkg           description                                                    
##    <chr>         <chr>                                                          
##  1 A3            Accurate, Adaptable, and Accessible Error Metrics for Predicti…
##  2 AalenJohansen Conditional Aalen-Johansen Estimation                          
##  3 AATtools      Reliability and Scoring Routines for the Approach-Avoidance Ta…
##  4 ABACUS        Apps Based Activities for Communicating and Understanding Stat…
##  5 abbreviate    Readable String Abbreviation                                   
##  6 abbyyR        Access to Abbyy Optical Character Recognition (OCR) API        
##  7 abc           Tools for Approximate Bayesian Computation (ABC)               
##  8 abc.data      Data Only: Tools for Approximate Bayesian Computation (ABC)    
##  9 ABC.RAP       Array Based CpG Region Analysis Pipeline                       
## 10 ABCanalysis   Computed ABC Analysis                                          
## # ℹ 19,520 more rows
…
dplyrはデータフレームを操作するためのパッケージである．
列の追加や選択，行の抽出や並べ替え，グループ化，集計などができる．
なお，dplyrの関数名の多くはSQLを参考にしていると思われるので，SQLを使ったことがあればコードの内容を理解しやすいだろう．

6.6.1 CRANのパッケージを分類する

ここでは，読み込んだデータフレームpkgsのCRANに登録されているパッケージを分類する．
mutate()を使って，descriptionに特定の文字列が含まれるかを判定して，その結果を真偽値の新しい列として追加する．
まずはstr_detect()でdescriptionの列に”ocr”を含むかどうかをTRUEまたはFALSEで返す．
その結果をocrという列として新たに追加する．

pkgs %>%
  dplyr::mutate(ocr = stringr::str_detect(description, "ocr"))

## # A tibble: 19,530 × 3
##    pkg           description                                               ocr  
##    <chr>         <chr>                                                     <lgl>
##  1 A3            Accurate, Adaptable, and Accessible Error Metrics for Pr… FALSE
##  2 AalenJohansen Conditional Aalen-Johansen Estimation                     FALSE
##  3 AATtools      Reliability and Scoring Routines for the Approach-Avoida… FALSE
##  4 ABACUS        Apps Based Activities for Communicating and Understandin… FALSE
##  5 abbreviate    Readable String Abbreviation                              FALSE
##  6 abbyyR        Access to Abbyy Optical Character Recognition (OCR) API   FALSE
##  7 abc           Tools for Approximate Bayesian Computation (ABC)          FALSE
##  8 abc.data      Data Only: Tools for Approximate Bayesian Computation (A… FALSE
##  9 ABC.RAP       Array Based CpG Region Analysis Pipeline                  FALSE
## 10 ABCanalysis   Computed ABC Analysis                                     FALSE
## # ℹ 19,520 more rows
…
  pattern <- stringr::regex(kwd, ignore_case = TRUE)
  df %>%
    dplyr::mutate(`:=`({{kwd}}, stringr::str_detect(.data[[col]], pattern)))
}
  # キーワードの一覧
kwds <- 
  c("database", "excel", "file", "ggplot", "image|magick", "keyboards|mouse", 
    "ocr", "office", "pdf", "python", "scrape|scraping|selenium", "shell")
  # キーワード列の追加
for(i in seq_along(kwds)){
  pkgs <- add_kwd(pkgs, "description", kwds[i])
}
pkgs

## # A tibble: 19,530 × 14
##    pkg           description          database excel file  ggplot `image|magick`
##    <chr>         <chr>                <lgl>    <lgl> <lgl> <lgl>  <lgl>         
##  1 A3            Accurate, Adaptable… FALSE    FALSE FALSE FALSE  FALSE         
##  2 AalenJohansen Conditional Aalen-J… FALSE    FALSE FALSE FALSE  FALSE         
##  3 AATtools      Reliability and Sco… FALSE    FALSE FALSE FALSE  FALSE         
##  4 ABACUS        Apps Based Activiti… FALSE    FALSE FALSE FALSE  FALSE         
##  5 abbreviate    Readable String Abb… FALSE    FALSE FALSE FALSE  FALSE         
##  6 abbyyR        Access to Abbyy Opt… FALSE    FALSE FALSE FALSE  FALSE         
##  7 abc           Tools for Approxima… FALSE    FALSE FALSE FALSE  FALSE         
##  8 abc.data      Data Only: Tools fo… FALSE    FALSE FALSE FALSE  FALSE         
##  9 ABC.RAP       Array Based CpG Reg… FALSE    FALSE FALSE FALSE  FALSE         
## 10 ABCanalysis   Computed ABC Analys… FALSE    FALSE FALSE FALSE  FALSE         
## # ℹ 19,520 more rows
## # ℹ 7 more variables: `keyboards|mouse` <lgl>, ocr <lgl>, office <lgl>,
## #   pdf <lgl>, python <lgl>, `scrape|scraping|selenium` <lgl>, shell <lgl>
…
dplyr::select(pkgs, -description) # dplyr::select(pkgs, !description)も同じ

## # A tibble: 19,530 × 13
##    pkg        database excel file  ggplot `image|magick` `keyboards|mouse` ocr  
##    <chr>      <lgl>    <lgl> <lgl> <lgl>  <lgl>          <lgl>             <lgl>
##  1 A3         FALSE    FALSE FALSE FALSE  FALSE          FALSE             FALSE
##  2 AalenJoha… FALSE    FALSE FALSE FALSE  FALSE          FALSE             FALSE
##  3 AATtools   FALSE    FALSE FALSE FALSE  FALSE          FALSE             FALSE
##  4 ABACUS     FALSE    FALSE FALSE FALSE  FALSE          FALSE             FALSE
##  5 abbreviate FALSE    FALSE FALSE FALSE  FALSE          FALSE             FALSE
##  6 abbyyR     FALSE    FALSE FALSE FALSE  FALSE          FALSE             TRUE 
##  7 abc        FALSE    FALSE FALSE FALSE  FALSE          FALSE             FALSE
##  8 abc.data   FALSE    FALSE FALSE FALSE  FALSE          FALSE             FALSE
##  9 ABC.RAP    FALSE    FALSE FALSE FALSE  FALSE          FALSE             FALSE
## 10 ABCanalys… FALSE    FALSE FALSE FALSE  FALSE          FALSE             FALSE
## # ℹ 19,520 more rows
## # ℹ 5 more variables: office <lgl>, pdf <lgl>, python <lgl>,
## #   `scrape|scraping|selenium` <lgl>, shell <lgl>

お気づきかもしれないがpkgsはtidyではないので，ここで整形しておく．

pkgs <- 
  tidyr::pivot_longer(pkgs, 
    cols = -c(pkg, description), names_to = "kwd", values_to = "val") %>%
    dplyr::filter(val) %>%
    print()

## # A tibble: 958 × 4
##    pkg              description                                      kwd   val  
##    <chr>            <chr>                                            <chr> <lgl>
##  1 abbyyR           Access to Abbyy Optical Character Recognition (… ocr   TRUE 
##  2 abjData          Databases Used Routinely by the Brazilian Jurim… data… TRUE 
##  3 ABPS             The Abnormal Blood Profile Score to Detect Bloo… file  TRUE 
##  4 ace2fastq        ACE File to FASTQ Converter                      file  TRUE 
##  5 AcousticNDLCodeR Coding Sound Files for Use with NDL              file  TRUE 
##  6 activPAL         Advanced Processing and Chart Generation from a… file  TRUE 
##  7 ADAPTS           Automated Deconvolution Augmentation of Profile… file  TRUE 
##  8 add2ggplot       Add to 'ggplot2'                                 ggpl… TRUE 
##  9 adepro           A 'shiny' Application for the (Audio-)Visualiza… file  TRUE 
## 10 adfExplorer      Import from and Export to Amiga Disk Files       file  TRUE 
## # ℹ 948 more rows
…
arrange()は，指定した列のデータの順序に従って並べ替えをする．
何も指定しなければ昇順，desc()で列名を指定すれば降順で並べ替えができる．

pkgs %>%
  dplyr::filter(val) %>%
  dplyr::group_by(kwd) %>%
  print() %>%
  dplyr::summarise(n = n()) %>% # tally()も同じ
  print() %>%
  dplyr::arrange(desc(n))

## # A tibble: 958 × 4
## # Groups:   kwd [12]
##    pkg              description                                      kwd   val  
##    <chr>            <chr>                                            <chr> <lgl>
##  1 abbyyR           Access to Abbyy Optical Character Recognition (… ocr   TRUE 
##  2 abjData          Databases Used Routinely by the Brazilian Jurim… data… TRUE 
##  3 ABPS             The Abnormal Blood Profile Score to Detect Bloo… file  TRUE 
##  4 ace2fastq        ACE File to FASTQ Converter                      file  TRUE 
##  5 AcousticNDLCodeR Coding Sound Files for Use with NDL              file  TRUE 
##  6 activPAL         Advanced Processing and Chart Generation from a… file  TRUE 
##  7 ADAPTS           Automated Deconvolution Augmentation of Profile… file  TRUE 
##  8 add2ggplot       Add to 'ggplot2'                                 ggpl… TRUE 
##  9 adepro           A 'shiny' Application for the (Audio-)Visualiza… file  TRUE 
## 10 adfExplorer      Import from and Export to Amiga Disk Files       file  TRUE 
## # ℹ 948 more rows
…
