…
```r
tibble::as_tibble(df)
```

```
## # A tibble: 21 x 3
##         a      b      c
##     <dbl>  <dbl>  <dbl>
##  1 -0.472  1.19  -0.341
##  2  0.581  1.37   0.862
##  3  0.409 -0.182  1.79 
##  4 -0.812 -0.564  1.61 
##  5  0.989 -1.01   0.350
##  6 -1.57  -1.20  -0.313
##  7  1.22  -0.175  0.133
##  8  0.853 -0.305  0.915
##  9 -0.182  0.406 -1.20 
## 10 -1.25   1.91  -2.61 
## # i 11 more rows
```
…
```r
tibble::as_tibble(mtcars)
```

```
## # A tibble: 32 x 11
##      mpg   cyl  disp    hp  drat    wt  qsec    vs    am  gear  carb
##    <dbl> <dbl> <dbl> <dbl> <dbl> <dbl> <dbl> <dbl> <dbl> <dbl> <dbl>
##  1  21       6  160    110  3.9   2.62  16.5     0     1     4     4
##  2  21       6  160    110  3.9   2.88  17.0     0     1     4     4
##  3  22.8     4  108     93  3.85  2.32  18.6     1     1     4     1
##  4  21.4     6  258    110  3.08  3.22  19.4     1     0     3     1
##  5  18.7     8  360    175  3.15  3.44  17.0     0     0     3     2
##  6  18.1     6  225    105  2.76  3.46  20.2     1     0     3     1
##  7  14.3     8  360    245  3.21  3.57  15.8     0     0     3     4
##  8  24.4     4  147.    62  3.69  3.19  20       1     0     4     2
##  9  22.8     4  141.    95  3.92  3.15  22.9     1     0     4     2
## 10  19.2     6  168.   123  3.92  3.44  18.3     1     0     4     4
## # i 22 more rows
```
…
```r
relig_income %>% 
  tidyr::pivot_longer(
    cols = !religion, 
    names_to = "income", 
    values_to = "count"
  )
```

```
## # A tibble: 180 x 3
##    religion income             count
##    <chr>    <chr>              <dbl>
##  1 Agnostic <$10k                 27
##  2 Agnostic $10-20k               34
##  3 Agnostic $20-30k               60
##  4 Agnostic $30-40k               81
##  5 Agnostic $40-50k               76
##  6 Agnostic $50-75k              137
##  7 Agnostic $75-100k             122
##  8 Agnostic $100-150k            109
##  9 Agnostic >150k                 84
## 10 Agnostic Don't know/refused    96
## # i 170 more rows
```
…
ここでは，第?章で保存したデータを読み込む．

<!--
wd <- "D:/matu/work/ToDo/retc"
setwd(wd)
-->

```r
pkgs <- readr::read_tsv("pkgs.txt", show_col_types = FALSE)
pkgs
```

```
## # A tibble: 19,530 x 2
##    pkg           description                                                    
##    <chr>         <chr>                                                          
##  1 A3            Accurate, Adaptable, and Accessible Error Metrics for Predicti~
##  2 AalenJohansen Conditional Aalen-Johansen Estimation                          
##  3 AATtools      Reliability and Scoring Routines for the Approach-Avoidance Ta~
##  4 ABACUS        Apps Based Activities for Communicating and Understanding Stat~
##  5 abbreviate    Readable String Abbreviation                                   
##  6 abbyyR        Access to Abbyy Optical Character Recognition (OCR) API        
##  7 abc           Tools for Approximate Bayesian Computation (ABC)               
##  8 abc.data      Data Only: Tools for Approximate Bayesian Computation (ABC)    
##  9 ABC.RAP       Array Based CpG Region Analysis Pipeline                       
## 10 ABCanalysis   Computed ABC Analysis                                          
## # i 19,520 more rows
```
…
### CRANのパッケージを分類する

ここでは，読み込んだデータフレーム`pkgs`のCRANに登録されているパッケージを分類する．
`mutate()`を使って，`description`に特定の文字列が含まれるかを判定して，その結果を真偽値の新しい列として追加する．
まずは`str_detect()`で`description`の列に"ocr"を含むかどうかをTRUEまたはFALSEで返す．
その結果をocrという列として新たに追加する．


```r
pkgs %>%
  dplyr::mutate(ocr = stringr::str_detect(description, "ocr"))
```

```
## # A tibble: 19,530 x 3
##    pkg           description                                               ocr  
##    <chr>         <chr>                                                     <lgl>
##  1 A3            Accurate, Adaptable, and Accessible Error Metrics for Pr~ FALSE
##  2 AalenJohansen Conditional Aalen-Johansen Estimation                     FALSE
##  3 AATtools      Reliability and Scoring Routines for the Approach-Avoida~ FALSE
##  4 ABACUS        Apps Based Activities for Communicating and Understandin~ FALSE
##  5 abbreviate    Readable String Abbreviation                              FALSE
##  6 abbyyR        Access to Abbyy Optical Character Recognition (OCR) API   FALSE
##  7 abc           Tools for Approximate Bayesian Computation (ABC)          FALSE
##  8 abc.data      Data Only: Tools for Approximate Bayesian Computation (A~ FALSE
##  9 ABC.RAP       Array Based CpG Region Analysis Pipeline                  FALSE
## 10 ABCanalysis   Computed ABC Analysis                                     FALSE
## # i 19,520 more rows
```
…
```
## # A tibble: 19,530 x 14
##    pkg           description          database excel file  ggplot `image|magick`
##    <chr>         <chr>                <lgl>    <lgl> <lgl> <lgl>  <lgl>         
##  1 A3            Accurate, Adaptable~ FALSE    FALSE FALSE FALSE  FALSE         
##  2 AalenJohansen Conditional Aalen-J~ FALSE    FALSE FALSE FALSE  FALSE         
##  3 AATtools      Reliability and Sco~ FALSE    FALSE FALSE FALSE  FALSE         
##  4 ABACUS        Apps Based Activiti~ FALSE    FALSE FALSE FALSE  FALSE         
##  5 abbreviate    Readable String Abb~ FALSE    FALSE FALSE FALSE  FALSE         
##  6 abbyyR        Access to Abbyy Opt~ FALSE    FALSE FALSE FALSE  FALSE         
##  7 abc           Tools for Approxima~ FALSE    FALSE FALSE FALSE  FALSE         
##  8 abc.data      Data Only: Tools fo~ FALSE    FALSE FALSE FALSE  FALSE         
##  9 ABC.RAP       Array Based CpG Reg~ FALSE    FALSE FALSE FALSE  FALSE         
## 10 ABCanalysis   Computed ABC Analys~ FALSE    FALSE FALSE FALSE  FALSE         
## # i 19,520 more rows
## # i 7 more variables: `keyboards|mouse` <lgl>, ocr <lgl>, office <lgl>,
## #   pdf <lgl>, python <lgl>, `scrape|scraping|selenium` <lgl>, shell <lgl>
```
…
```r
dplyr::select(pkgs, -description) # dplyr::select(pkgs, !description)も同じ
```

```
## # A tibble: 19,530 x 13
##    pkg        database excel file  ggplot `image|magick` `keyboards|mouse` ocr  
##    <chr>      <lgl>    <lgl> <lgl> <lgl>  <lgl>          <lgl>             <lgl>
##  1 A3         FALSE    FALSE FALSE FALSE  FALSE          FALSE             FALSE
##  2 AalenJoha~ FALSE    FALSE FALSE FALSE  FALSE          FALSE             FALSE
##  3 AATtools   FALSE    FALSE FALSE FALSE  FALSE          FALSE             FALSE
##  4 ABACUS     FALSE    FALSE FALSE FALSE  FALSE          FALSE             FALSE
##  5 abbreviate FALSE    FALSE FALSE FALSE  FALSE          FALSE             FALSE
##  6 abbyyR     FALSE    FALSE FALSE FALSE  FALSE          FALSE             TRUE 
##  7 abc        FALSE    FALSE FALSE FALSE  FALSE          FALSE             FALSE
##  8 abc.data   FALSE    FALSE FALSE FALSE  FALSE          FALSE             FALSE
##  9 ABC.RAP    FALSE    FALSE FALSE FALSE  FALSE          FALSE             FALSE
## 10 ABCanalys~ FALSE    FALSE FALSE FALSE  FALSE          FALSE             FALSE
## # i 19,520 more rows
## # i 5 more variables: office <lgl>, pdf <lgl>, python <lgl>,
## #   `scrape|scraping|selenium` <lgl>, shell <lgl>
```

お気づきかもしれないがpkgsはtidyではないので，ここで整形しておく．


```r
pkgs <- 
  tidyr::pivot_longer(pkgs, 
    cols = -c(pkg, description), names_to = "kwd", values_to = "val") %>%
    dplyr::filter(val) %>%
    print()
```

```
## # A tibble: 958 x 4
##    pkg              description                                      kwd   val  
##    <chr>            <chr>                                            <chr> <lgl>
##  1 abbyyR           Access to Abbyy Optical Character Recognition (~ ocr   TRUE 
##  2 abjData          Databases Used Routinely by the Brazilian Jurim~ data~ TRUE 
##  3 ABPS             The Abnormal Blood Profile Score to Detect Bloo~ file  TRUE 
##  4 ace2fastq        ACE File to FASTQ Converter                      file  TRUE 
##  5 AcousticNDLCodeR Coding Sound Files for Use with NDL              file  TRUE 
##  6 activPAL         Advanced Processing and Chart Generation from a~ file  TRUE 
##  7 ADAPTS           Automated Deconvolution Augmentation of Profile~ file  TRUE 
##  8 add2ggplot       Add to 'ggplot2'                                 ggpl~ TRUE 
##  9 adepro           A 'shiny' Application for the (Audio-)Visualiza~ file  TRUE 
## 10 adfExplorer      Import from and Export to Amiga Disk Files       file  TRUE 
## # i 948 more rows
```
…
```r
pkgs %>%
  dplyr::filter(val) %>%
  dplyr::group_by(kwd) %>%
  print() %>%
  dplyr::summarise(n = n()) %>% # tally()も同じ
  print() %>%
  dplyr::arrange(desc(n))
```

```
## # A tibble: 958 x 4
## # Groups:   kwd [12]
##    pkg              description                                      kwd   val  
##    <chr>            <chr>                                            <chr> <lgl>
##  1 abbyyR           Access to Abbyy Optical Character Recognition (~ ocr   TRUE 
##  2 abjData          Databases Used Routinely by the Brazilian Jurim~ data~ TRUE 
##  3 ABPS             The Abnormal Blood Profile Score to Detect Bloo~ file  TRUE 
##  4 ace2fastq        ACE File to FASTQ Converter                      file  TRUE 
##  5 AcousticNDLCodeR Coding Sound Files for Use with NDL              file  TRUE 
##  6 activPAL         Advanced Processing and Chart Generation from a~ file  TRUE 
##  7 ADAPTS           Automated Deconvolution Augmentation of Profile~ file  TRUE 
##  8 add2ggplot       Add to 'ggplot2'                                 ggpl~ TRUE 
##  9 adepro           A 'shiny' Application for the (Audio-)Visualiza~ file  TRUE 
## 10 adfExplorer      Import from and Export to Amiga Disk Files       file  TRUE 
## # i 948 more rows
…
```r
domain <- "https://www.jsps.go.jp/j-grantsinaid/01_seido/03_shinsa/meibo/r02/"
dir <- c("wakate/w_", "kiban_b/b_", "kiban_c/c_")
div <- c("w_", "b_", "c_")
file <- c("01010","01020","01030","01040","01050","01060","01070","01080")
reviewers <-
  tidyr::expand_grid(domain, dir, file) %>%
  dplyr::transmute(url = paste0(domain, dir, file, ".pdf"), 
                   destfile = paste0(fs::path_temp(), "/", div, file, ".pdf")) %>%
  print() %>%
  pmap_chr(curl::curl_download)
```

```
## # A tibble: 24 x 2
##    url                                                                  destfile
##    <chr>                                                                <chr>   
##  1 https://www.jsps.go.jp/j-grantsinaid/01_seido/03_shinsa/meibo/r02/w~ C:/User~
##  2 https://www.jsps.go.jp/j-grantsinaid/01_seido/03_shinsa/meibo/r02/w~ C:/User~
##  3 https://www.jsps.go.jp/j-grantsinaid/01_seido/03_shinsa/meibo/r02/w~ C:/User~
##  4 https://www.jsps.go.jp/j-grantsinaid/01_seido/03_shinsa/meibo/r02/w~ C:/User~
##  5 https://www.jsps.go.jp/j-grantsinaid/01_seido/03_shinsa/meibo/r02/w~ C:/User~
##  6 https://www.jsps.go.jp/j-grantsinaid/01_seido/03_shinsa/meibo/r02/w~ C:/User~
##  7 https://www.jsps.go.jp/j-grantsinaid/01_seido/03_shinsa/meibo/r02/w~ C:/User~
##  8 https://www.jsps.go.jp/j-grantsinaid/01_seido/03_shinsa/meibo/r02/w~ C:/User~
##  9 https://www.jsps.go.jp/j-grantsinaid/01_seido/03_shinsa/meibo/r02/k~ C:/User~
## 10 https://www.jsps.go.jp/j-grantsinaid/01_seido/03_shinsa/meibo/r02/k~ C:/User~
## # i 14 more rows
```
…
